<?xml version="1.0" standalone="no"?>
<!DOCTYPE svg PUBLIC "-//W3C//DTD SVG 1.1//EN" "http://www.w3.org/Graphics/SVG/1.1/DTD/svg11.dtd">
<svg width="210mm" height="297mm" viewBox="-7000 500 14000 20000" version="1.1" xmlns="http://www.w3.org/2000/svg">

<polyline points="-1666,4717 -1488,4499 -1264,4125 -1042,3748 -820,3391 -612,3069 -456,2797 -355,2576 -311,2427 -297,2345 -293,2313 " style="fill: white; stroke: black; stroke-width: 30" />
<polyline points="-235,2393 -234,2390 -205,2407 -112,2472 18,2593 175,2795 360,3065 360,3065 576,3278 811,3541 " style="fill: white; stroke: black; stroke-width: 30" />

</svg>